<?xml version="1.0" encoding="UTF-8"?>
<svg width="24px" height="24px" viewBox="0 0 24 24" version="1.1" xmlns="http://www.w3.org/2000/svg" xmlns:xlink="http://www.w3.org/1999/xlink">
    <!-- Generator: sketchtool 51.3 (57544) - http://www.bohemiancoding.com/sketch -->
    <title>7117D47A-8226-47A0-8C25-9E2C7FD92728</title>
    <desc>Created with sketchtool.</desc>
    <defs></defs>
    <g id="Page-1" stroke="none" stroke-width="1" fill="none" fill-rule="evenodd">
        <g id="icon_use" transform="translate(-590.000000, -216.000000)">
            <g id="instagram_icon" transform="translate(590.000000, 216.000000)">
                <g>
                    <circle id="Oval" fill="#484848" cx="12" cy="12" r="12"></circle>
                    <path d="M14.3333333,12 C14.3333333,11.3558996 14.105471,10.8059919 13.6497396,10.3502604 C13.1940081,9.89452897 12.6441004,9.66666667 12,9.66666667 C11.3558996,9.66666667 10.8059919,9.89452897 10.3502604,10.3502604 C9.89452897,10.8059919 9.66666667,11.3558996 9.66666667,12 C9.66666667,12.6441004 9.89452897,13.1940081 10.3502604,13.6497396 C10.8059919,14.105471 11.3558996,14.3333333 12,14.3333333 C12.6441004,14.3333333 13.1940081,14.105471 13.6497396,13.6497396 C14.105471,13.1940081 14.3333333,12.6441004 14.3333333,12 Z M15.5911458,12 C15.5911458,12.9965328 15.241757,13.8441805 14.5429687,14.5429687 C13.8441805,15.241757 12.9965328,15.5911458 12,15.5911458 C11.0034672,15.5911458 10.1558195,15.241757 9.45703125,14.5429687 C8.75824303,13.8441805 8.40885417,12.9965328 8.40885417,12 C8.40885417,11.0034672 8.75824303,10.1558195 9.45703125,9.45703125 C10.1558195,8.75824303 11.0034672,8.40885417 12,8.40885417 C12.9965328,8.40885417 13.8441805,8.75824303 14.5429687,9.45703125 C15.241757,10.1558195 15.5911458,11.0034672 15.5911458,12 Z M16.5755208,8.26302083 C16.5755208,8.49392477 16.4934904,8.69140543 16.3294271,8.85546875 C16.1653638,9.01953207 15.9678831,9.1015625 15.7369792,9.1015625 C15.5060752,9.1015625 15.3085946,9.01953207 15.1445312,8.85546875 C14.9804679,8.69140543 14.8984375,8.49392477 14.8984375,8.26302083 C14.8984375,8.0321169 14.9804679,7.83463624 15.1445312,7.67057292 C15.3085946,7.5065096 15.5060752,7.42447917 15.7369792,7.42447917 C15.9678831,7.42447917 16.1653638,7.5065096 16.3294271,7.67057292 C16.4934904,7.83463624 16.5755208,8.0321169 16.5755208,8.26302083 Z M12,6.2578125 C11.9574651,6.2578125 11.7250455,6.25629342 11.3027344,6.25325521 C10.8804232,6.250217 10.5598969,6.250217 10.3411458,6.25325521 C10.1223947,6.25629342 9.82921191,6.26540791 9.46158854,6.28059896 C9.09396518,6.29579001 8.78103428,6.32617165 8.52278646,6.37174479 C8.26453864,6.41731794 8.04730991,6.47352397 7.87109375,6.54036458 C7.56727279,6.66189297 7.29991435,6.83810648 7.06901042,7.06901042 C6.83810648,7.29991435 6.66189297,7.56727279 6.54036458,7.87109375 C6.47352397,8.04730991 6.41731794,8.26453864 6.37174479,8.52278646 C6.32617165,8.78103428 6.29579001,9.09396518 6.28059896,9.46158854 C6.26540791,9.82921191 6.25629342,10.1223947 6.25325521,10.3411458 C6.250217,10.5598969 6.250217,10.8804232 6.25325521,11.3027344 C6.25629342,11.7250455 6.2578125,11.9574651 6.2578125,12 C6.2578125,12.0425349 6.25629342,12.2749545 6.25325521,12.6972656 C6.250217,13.1195768 6.250217,13.4401031 6.25325521,13.6588542 C6.25629342,13.8776053 6.26540791,14.1707881 6.28059896,14.5384115 C6.29579001,14.9060348 6.32617165,15.2189657 6.37174479,15.4772135 C6.41731794,15.7354614 6.47352397,15.9526901 6.54036458,16.1289063 C6.66189297,16.4327272 6.83810648,16.7000857 7.06901042,16.9309896 C7.29991435,17.1618935 7.56727279,17.338107 7.87109375,17.4596354 C8.04730991,17.526476 8.26453864,17.5826821 8.52278646,17.6282552 C8.78103428,17.6738284 9.09396518,17.70421 9.46158854,17.719401 C9.82921191,17.7345921 10.1223947,17.7437066 10.3411458,17.7467448 C10.5598969,17.749783 10.8804232,17.749783 11.3027344,17.7467448 C11.7250455,17.7437066 11.9574651,17.7421875 12,17.7421875 C12.0425349,17.7421875 12.2749545,17.7437066 12.6972656,17.7467448 C13.1195768,17.749783 13.4401031,17.749783 13.6588542,17.7467448 C13.8776053,17.7437066 14.1707881,17.7345921 14.5384115,17.719401 C14.9060348,17.70421 15.2189657,17.6738284 15.4772135,17.6282552 C15.7354614,17.5826821 15.9526901,17.526476 16.1289062,17.4596354 C16.4327272,17.338107 16.7000857,17.1618935 16.9309896,16.9309896 C17.1618935,16.7000857 17.338107,16.4327272 17.4596354,16.1289063 C17.526476,15.9526901 17.5826821,15.7354614 17.6282552,15.4772135 C17.6738284,15.2189657 17.70421,14.9060348 17.719401,14.5384115 C17.7345921,14.1707881 17.7437066,13.8776053 17.7467448,13.6588542 C17.749783,13.4401031 17.749783,13.1195768 17.7467448,12.6972656 C17.7437066,12.2749545 17.7421875,12.0425349 17.7421875,12 C17.7421875,11.9574651 17.7437066,11.7250455 17.7467448,11.3027344 C17.749783,10.8804232 17.749783,10.5598969 17.7467448,10.3411458 C17.7437066,10.1223947 17.7345921,9.82921191 17.719401,9.46158854 C17.70421,9.09396518 17.6738284,8.78103428 17.6282552,8.52278646 C17.5826821,8.26453864 17.526476,8.04730991 17.4596354,7.87109375 C17.338107,7.56727279 17.1618935,7.29991435 16.9309896,7.06901042 C16.7000857,6.83810648 16.4327272,6.66189297 16.1289062,6.54036458 C15.9526901,6.47352397 15.7354614,6.41731794 15.4772135,6.37174479 C15.2189657,6.32617165 14.9060348,6.29579001 14.5384115,6.28059896 C14.1707881,6.26540791 13.8776053,6.25629342 13.6588542,6.25325521 C13.4401031,6.250217 13.1195768,6.250217 12.6972656,6.25325521 C12.2749545,6.25629342 12.0425349,6.2578125 12,6.2578125 Z M19,12 C19,13.3915 18.9848092,14.354598 18.9544271,14.8893229 C18.8936629,16.1532181 18.5169305,17.131507 17.8242188,17.8242187 C17.131507,18.5169305 16.1532181,18.8936629 14.8893229,18.9544271 C14.354598,18.9848092 13.3915,19 12,19 C10.6085,19 9.64540198,18.9848092 9.11067708,18.9544271 C7.84678188,18.8936629 6.86849305,18.5169305 6.17578125,17.8242187 C5.48306945,17.131507 5.10633711,16.1532181 5.04557292,14.8893229 C5.01519082,14.354598 5,13.3915 5,12 C5,10.6085 5.01519082,9.64540198 5.04557292,9.11067708 C5.10633711,7.84678187 5.48306945,6.86849305 6.17578125,6.17578125 C6.86849305,5.48306945 7.84678188,5.10633711 9.11067708,5.04557292 C9.64540198,5.01519082 10.6085,5 12,5 C13.3915,5 14.354598,5.01519082 14.8893229,5.04557292 C16.1532181,5.10633711 17.131507,5.48306945 17.8242188,6.17578125 C18.5169305,6.86849305 18.8936629,7.84678187 18.9544271,9.11067708 C18.9848092,9.64540198 19,10.6085 19,12 Z" id="Instagram---FontAwesome" fill="#FFFFFF"></path>
                </g>
            </g>
        </g>
    </g>
</svg>