<?xml version="1.0" encoding="UTF-8"?>
<svg width="12px" height="12px" viewBox="0 0 12 12" version="1.1" xmlns="http://www.w3.org/2000/svg" xmlns:xlink="http://www.w3.org/1999/xlink">
    <!-- Generator: sketchtool 51.3 (57544) - http://www.bohemiancoding.com/sketch -->
    <title>07FE25EF-D5D3-4835-B18E-FEF588495C67</title>
    <desc>Created with sketchtool.</desc>
    <defs>
        <rect id="path-1" x="0" y="0" width="12" height="12"></rect>
    </defs>
    <g id="Symbols" stroke="none" stroke-width="1" fill="none" fill-rule="evenodd">
        <g id="caret_down_icon">
            <g>
                <mask id="mask-2" fill="white">
                    <use xlink:href="#path-1"></use>
                </mask>
                <use id="Mask" fill="#D8D8D8" opacity="0" xlink:href="#path-1"></use>
                <path d="M10.0046024,4 C10.5543453,4 10.6872276,4.31277239 10.2942268,4.70577316 L6.70577316,8.29422684 C6.31598541,8.68401459 5.68722761,8.68722761 5.29422684,8.29422684 L1.70577316,4.70577316 C1.31598541,4.31598541 1.4556644,4 1.99539757,4 L10.0046024,4 Z" fill="#333333" mask="url(#mask-2)"></path>
            </g>
        </g>
    </g>
</svg>