<?xml version="1.0" encoding="UTF-8"?>
<svg width="24px" height="24px" viewBox="0 0 24 24" version="1.1" xmlns="http://www.w3.org/2000/svg" xmlns:xlink="http://www.w3.org/1999/xlink">
    <!-- Generator: sketchtool 51.3 (57544) - http://www.bohemiancoding.com/sketch -->
    <title>D913CA61-E292-461D-BA86-7413F171D49A</title>
    <desc>Created with sketchtool.</desc>
    <defs></defs>
    <g id="Page-1" stroke="none" stroke-width="1" fill="none" fill-rule="evenodd">
        <g id="icon_use" transform="translate(-158.000000, -216.000000)">
            <g id="discount_icon" transform="translate(158.000000, 216.000000)">
                <g>
                    <circle id="Oval-4" fill="#01BCD5" cx="12" cy="12" r="12"></circle>
                    <g id="Group-12" transform="translate(6.000000, 6.000000)">
                        <rect id="Rectangle-13" fill="#D8D8D8" opacity="0" x="0" y="0" width="12" height="12"></rect>
                        <g id="Group-53" transform="translate(1.000000, 1.000000)" fill="#FFFFFF" stroke="#FFFFFF">
                            <path d="M2,3.5 C2.82785763,3.5 3.5,2.82785763 3.5,2 C3.5,1.17214237 2.82785763,0.5 2,0.5 C1.17214237,0.5 0.5,1.17214237 0.5,2 C0.5,2.82785763 1.17214237,3.5 2,3.5 Z" id="Stroke-178"></path>
                            <path d="M8,9.5 C8.82785763,9.5 9.5,8.82785763 9.5,8 C9.5,7.17214237 8.82785763,6.5 8,6.5 C7.17214237,6.5 6.5,7.17214237 6.5,8 C6.5,8.82785763 7.17214237,9.5 8,9.5 Z" id="Stroke-178-Copy"></path>
                        </g>
                        <path d="M10,2 L2,10" id="Path-6" stroke="#FFFFFF" stroke-width="2"></path>
                    </g>
                </g>
            </g>
        </g>
    </g>
</svg>