<?xml version="1.0" encoding="UTF-8"?>
<svg width="24px" height="24px" viewBox="0 0 24 24" version="1.1" xmlns="http://www.w3.org/2000/svg" xmlns:xlink="http://www.w3.org/1999/xlink">
    <!-- Generator: sketchtool 51.3 (57544) - http://www.bohemiancoding.com/sketch -->
    <title>97CC7E1E-04FC-4509-ADB8-BB115D22CEB0</title>
    <desc>Created with sketchtool.</desc>
    <defs></defs>
    <g id="Symbols" stroke="none" stroke-width="1" fill="none" fill-rule="evenodd">
        <g id="location_icon">
            <g>
                <rect id="Rectangle-12" fill="#D8D8D8" opacity="0" x="0" y="0" width="24" height="24"></rect>
                <path d="M12.0384525,0 C17.7781946,0 22.476905,4.67057444 22.476905,10.4103165 C22.476905,12.7174678 21.7453693,14.883939 20.3667057,16.6846424 C18.4253224,19.1887456 12.8262603,23.6060961 12.6011723,23.8030481 C12.4323564,23.943728 12.2354045,24 12.0384525,24 C11.8415006,24 11.6445487,23.943728 11.4757327,23.8030481 C11.2506448,23.6060961 5.65158265,19.1887456 3.7101993,16.7127784 C2.33153576,14.883939 1.6,12.7174678 1.6,10.4103165 C1.6,4.67057444 6.29871043,0 12.0384525,0 Z M12.0384525,14.4056272 C14.3456038,14.4056272 16.2307151,12.5205158 16.2307151,10.1852286 C16.2307151,7.87807737 14.3456038,5.992966 12.0384525,5.992966 C9.73130129,5.992966 7.84618992,7.87807737 7.84618992,10.1852286 C7.84618992,12.5205158 9.73130129,14.4056272 12.0384525,14.4056272 Z" id="Shape" fill="#F65E39" fill-rule="nonzero"></path>
            </g>
        </g>
    </g>
</svg>