<?xml version="1.0" encoding="UTF-8"?>
<svg width="24px" height="24px" viewBox="0 0 24 24" version="1.1" xmlns="http://www.w3.org/2000/svg" xmlns:xlink="http://www.w3.org/1999/xlink">
    <!-- Generator: sketchtool 51.3 (57544) - http://www.bohemiancoding.com/sketch -->
    <title>8D049F9E-86B2-4E37-81EF-5E71DB05D02A</title>
    <desc>Created with sketchtool.</desc>
    <defs>
        <circle id="path-1" cx="12" cy="12" r="12"></circle>
    </defs>
    <g id="Page-1" stroke="none" stroke-width="1" fill="none" fill-rule="evenodd">
        <g id="icon_use" transform="translate(-266.000000, -216.000000)">
            <g id="vi_icon" transform="translate(266.000000, 216.000000)">
                <g id="GB">
                    <g>
                        <mask id="mask-2" fill="white">
                            <use xlink:href="#path-1"></use>
                        </mask>
                        <use id="Mask" fill="#22438B" xlink:href="#path-1"></use>
                        <g id="Group" mask="url(#mask-2)">
                            <g transform="translate(1.000000, 1.000000)">
                                <path d="M0,0 L22,22" id="Path-7" stroke="#FFFFFF" stroke-width="4"></path>
                                <path d="M0,0 L22,22" id="Path-7-Copy" stroke="#C7152A" stroke-width="2"></path>
                            </g>
                        </g>
                        <g id="Group-Copy" mask="url(#mask-2)">
                            <g transform="translate(12.000000, 12.000000) scale(-1, 1) translate(-12.000000, -12.000000) translate(1.000000, 1.000000)">
                                <path d="M0,0 L22,22" id="Path-7" stroke="#FFFFFF" stroke-width="4"></path>
                                <path d="M0,0 L22,22" id="Path-7-Copy" stroke="#C7152A" stroke-width="2"></path>
                            </g>
                        </g>
                        <g mask="url(#mask-2)">
                            <rect id="Rectangle" fill="#FFFFFF" x="8" y="0" width="8" height="24"></rect>
                            <rect id="Rectangle-Copy" fill="#FFFFFF" x="0" y="8" width="24" height="8"></rect>
                            <rect id="Rectangle-Copy-3" fill="#C7152A" x="9" y="0" width="6" height="24"></rect>
                            <rect id="Rectangle-Copy-2" fill="#C7152A" x="0" y="9" width="24" height="6"></rect>
                        </g>
                    </g>
                </g>
            </g>
        </g>
    </g>
</svg>